lab4/q2_input_scope_analyzer_CSV.csv

#Digilent WaveForms Oscilloscope Acquisition
#Device Name: Discovery2
#Serial Number: SN:210321B2EC34
#Date Time: 2026-03-31 19:17:03.346
#Sample rate: 800000Hz
#Samples: 8192
#Trigger: Source: Channel 1 Type: Edge Condition: Rising Level: 0 V Hyst.: Auto HoldOff: 0 s
#Channel 1: Range: 1 V/div Offset: 0 V Sample Mode: Average
#Wavegen Channel 1: Running
#Mode: Simple
#Type: Sine
#Frequency: 1 kHz
#Period: 1 ms
#Amplitude: 1 V
#Offset: 1 V
#Symmetry: 50 %
#Phase: 0 °
#Wavegen Channel 2: Running
#Mode: Simple
#Type: DC
#Offset: 800 mV
#Power Supplies: ON
#Positive Supply: ON
#Voltage: 5 V
#Negative Supply: ON
#Voltage: -5 V

Time (s),Channel 1 (V)
-0.00512,1.560772528572876
-0.00511875,1.546204085353226
-0.0051175,1.538919863743397
-0.00511625,1.531635642133575
-0.005115,1.517067198913925
-0.00511375,1.513425088109012
-0.0051125,1.5097829773041
-0.00511125,1.506140866499189
-0.00511,1.495214534084449
-0.00510875,1.498856644889352
-0.0051075,1.477003980059886
-0.00510625,1.477003980059885
-0.005105,1.473361869254974
-0.00510375,1.469719758450061
-0.0051025,1.462435536840236
-0.00510125,1.451509204425498
-0.0051,1.440582872010765
-0.00509875,1.429656539596023
-0.0050975,1.429656539596019
-0.00509625,1.422372317986197
-0.005095,1.415088096376369
-0.00509375,1.407803874766547
-0.0050925,1.400519653156722
-0.00509125,1.389593320741989
-0.00509,1.389593320741984
-0.00508875,1.382309099132162
-0.0050875,1.375024877522334
-0.00508625,1.371382766717416
-0.005085,1.360456434302683
-0.00508375,1.353172212692858
-0.0050825,1.342245880278121
-0.00508125,1.331319547863383
-0.00508,1.327677437058472
-0.00507875,1.320393215448645
-0.0050775,1.309466883033912
-0.00507625,1.305824772228995
-0.005075,1.298540550619168
-0.00507375,1.294898439814257
-0.0050725,1.283972107399519
-0.00507125,1.276687885789694
-0.00507,1.269403664179869
-0.00506875,1.258477331765136
-0.0050675,1.258477331765131
-0.00506625,1.243908888545476
-0.005065,1.232982556130743
-0.00506375,1.225698334520916
-0.0050625,1.222056223716005
-0.00506125,1.207487780496355
-0.00506,1.207487780496355
-0.00505875,1.196561448081617
-0.0050575,1.185635115666884
-0.00505625,1.181993004861966
-0.005055,1.174708783252136
-0.00505375,1.163782450837404
-0.0050525,1.160140340032489
-0.00505125,1.156498229227578
-0.00505,1.149214007617753
-0.00504875,1.127361342788288
-0.0050475,1.112792899568627
-0.00504625,1.120077121178449
-0.005045,1.109150788763715
-0.00504375,1.101866567153888
-0.0050425,1.098224456348977
-0.00504125,1.087298123934239
-0.00504,1.072729680714589
-0.00503875,1.072729680714589
-0.0050375,1.061803348299856
-0.00503625,1.054519126690026
-0.005035,1.047234905080204
-0.00503375,1.043592794275288
-0.0050325,1.021740129445811
-0.00503125,1.0180980186409
-0.00503,1.014455907835987
-0.00502875,1.014455907835987
-0.0050275,0.9998874646163369
-0.00502625,0.9998874646163369
-0.005025,0.9962453538114244
-0.00502375,0.981676910591769
-0.0050225,0.9707505781770362
-0.00502125,0.9561821349573842
-0.00502,0.9525400241524733
-0.00501875,0.9452558025426481
-0.0050175,0.9452558025426481
-0.00501625,0.9343294701279103
-0.005015,0.9197610269082667
-0.00501375,0.9161189161033474
-0.0050125,0.9161189161033391
-0.00501125,0.8979083620787844
-0.00501,0.8906241404689559
-0.00500875,0.8833399188591341
-0.0050075,0.8760556972493089
-0.00500625,0.8687714756394838
-0.005005,0.8687714756394838
-0.00500375,0.8505609216149291
-0.0050025,0.839634589200183
-0.00500125,0.8287082567854452
-0.005,0.8287082567854452
-0.00499875,0.8177819243707074
-0.0049975,0.8177819243707074
-0.00499625,0.8068555919559697
-0.004995,0.8032134811510587
-0.00499375,0.7959292595412319
-0.0049925,0.7850029271264991
-0.00499125,0.7740765947117564
-0.00499,0.7595081514921077
-0.00498875,0.7631502622970187
-0.0049875,0.759508151492106
-0.00498625,0.7485818190773682
-0.004985,0.7412975974675431
-0.00498375,0.7230870434429885
-0.0049825,0.7267291542478928
-0.00498125,0.7194449326380642
-0.00498,0.7121607110282423
-0.00497875,0.6903080461987635
-0.0049775,0.6830238245889416
-0.00497625,0.6866659353938542
-0.004975,0.6757396029791164
-0.00497375,0.6720974921742039
-0.0049725,0.664813270564382
-0.00497125,0.6575290489545534
-0.00497,0.6466027165398107
-0.00496875,0.635676384125078
-0.0049675,0.6247500517103385
-0.00496625,0.6211079409054275
-0.004965,0.6247500517103401
-0.00496375,0.617465830100515
-0.0049625,0.5992552760759521
-0.00496125,0.5956131652710411
-0.00496,0.5883289436612142
-0.00495875,0.5883289436612059
-0.0049575,0.5701183896366513
-0.00495625,0.5628341680268262
-0.004955,0.5628341680268262
-0.00495375,0.5628341680268262
-0.0049525,0.5482657248071825
-0.00495125,0.5409815031973506
-0.00495,0.522770949172796
-0.00494875,0.5264130599777003
-0.0049475,0.5154867275629591
-0.00494625,0.5082025059531373
-0.004945,0.5082025059531373
-0.00494375,0.4972761735383995
-0.0049425,0.4936340627334869
-0.00494125,0.4790656195138432
-0.00494,0.4790656195138366
-0.00493875,0.4754235087089256
-0.0049375,0.4644971762941862
-0.00493625,0.4608550654892686
-0.004935,0.4499287330745358
-0.00493375,0.4499287330745358
-0.0049325,0.4317181790499729
-0.00493125,0.4426445114647107
-0.00493,0.4135076250254232
-0.00492875,0.4171497358303226
-0.0049275,0.4171497358303192
-0.00492625,0.4098655142204973
-0.004925,0.4098655142204907
-0.00492375,0.395297071000847
-0.0049225,0.3916549601959344
-0.00492125,0.3807286277811966
-0.00492,0.377086516976284
-0.00491875,0.3661601845615512
-0.0049175,0.3625180737566337
-0.00491625,0.3552338521468069
-0.004915,0.3515917413418959
-0.00491375,0.3370232981222472
-0.0049125,0.3406654089271581
-0.00491125,0.3370232981222456
-0.00491,0.3260969657075128
-0.00490875,0.3224548549025952
-0.0049075,0.3224548549025952
-0.00490625,0.31517063329277
-0.004905,0.3006021900731163
-0.00490375,0.2933179684632945
-0.0049025,0.3006021900731197
-0.00490125,0.2896758576583819
-0.0049,0.2896758576583819
-0.00489875,0.278749525243649
-0.0048975,0.2787495252436441
-0.00489625,0.2714653036338223
-0.004895,0.2568968604141686
-0.00489375,0.2496126388043417
-0.0048925,0.2459705279994308
-0.00489125,0.2459705279994308
-0.00489,0.2386863063896056
-0.00488875,0.2386863063896056
-0.0048875,0.2423284171945165
-0.00488625,0.2204757523650427
-0.004885,0.2131915307552175
-0.00488375,0.2131915307552175
-0.0048825,0.2095494199503032
-0.00488125,0.2059073091453923
-0.00488,0.2022651983404797
-0.00487875,0.1986230875355671
-0.0048775,0.1840546443159168
-0.00487625,0.1876967551208277
-0.004875,0.1804125335110042
-0.00487375,0.1804125335109975
-0.0048725,0.1658440902913538
-0.00487125,0.1658440902913538
-0.00487,0.1658440902913538
-0.00486875,0.1622019794864412
-0.0048675,0.1585598686815303
-0.00486625,0.154917757876616
-0.004865,0.1512756470717051
-0.00486375,0.1512756470717035
-0.0048625,0.1403493146569673
-0.00486125,0.1439914254618783
-0.00486,0.1257808714373153
-0.00485875,0.1257808714373153
-0.0048575,0.1257808714373153
-0.00485625,0.1221387606324044
-0.004855,0.111212428217665
-0.00485375,0.111212428217665
-0.0048525,0.111212428217665
-0.00485125,0.1075703174127507
-0.00485,0.1039282066078398
-0.00484875,0.0966439849980146
-0.0048475,0.0966439849980146
-0.00484625,0.0966439849980146
-0.004845,0.09300187419310366
-0.00484375,0.08935976338818942
-0.0048425,0.08207554177836589
-0.00484125,0.08571765258327683
-0.00484,0.08207554177836092
-0.00483875,0.07479132016853907
-0.0048375,0.06386498775380128
-0.00483625,0.06750709855871388
-0.004835,0.07114920936362647
-0.00483375,0.06750709855871553
-0.0048325,0.05658076614397611
-0.00483125,0.07114920936362315
-0.00483,0.06386498775380128
-0.00482875,0.05658076614397445
-0.0048275,0.05293865533906351
-0.00482625,0.04929654453415093
-0.004825,0.04929654453415093
-0.00482375,0.04201232292432575
-0.0048225,0.03472810131450388
-0.00482125,0.03837021211941316
-0.00482,0.04565443372923668
-0.00481875,0.04201232292432575
-0.0048175,0.04201232292432575
-0.00481625,0.02744387970467538
-0.004815,0.0238017688997628
-0.00481375,0.0238017688997628
-0.0048125,0.02015965809485021
-0.00481125,0.02380176889976114
-0.00481,0.01651754728993762
-0.00480875,0.02015965809485186
-0.0048075,0.0238017688997628
-0.00480625,0.01651754728993762
-0.004805,0.01651754728993762
-0.00480375,0.0238017688997628
-0.0048025,0.01287543648502999
-0.00480125,0.01651754728993762
-0.0048,0.009233325680114092
-0.00479875,0.01287543648502503
-0.0047975,0.009233325680114092
-0.00479625,0.01287543648502503
-0.004795,0.005591214875199845
-0.00479375,0.01287543648502503
-0.0047925,0.005591214875199845
-0.00479125,-0.001693006734622022
-0.00479,0.005591214875199845
-0.00478875,0.009233325680110779
-0.0047875,0.005591214875199845
-0.00478625,0.001949104070288912
-0.004785,0.005591214875199845
-0.00478375,-0.001693006734625335
-0.0047825,0.009233325680107467
-0.00478125,0.009233325680112436
-0.00478,-0.001693006734620367
-0.00477875,-0.001693006734625335
-0.0047775,0.001949104070287255
-0.00477625,0.001949104070287255
-0.004775,0.001949104070287255
-0.00477375,-0.001693006734625335
-0.0047725,0.001949104070287255
-0.00477125,0.005591214875198189
-0.00477,0.001949104070287255
-0.00476875,0.01287543648502006
-0.0047675,0.001949104070287255
-0.00476625,-0.00169300673461871
-0.004765,0.01287543648502503
-0.00476375,0.001949104070287255
-0.0047625,0.001949104070287255
-0.00476125,0.005591214875199845
-0.00476,0.01287543648502171
-0.00475875,0.009233325680112436
-0.0047575,0.00194910407029388
-0.00475625,0.01651754728993762
-0.004755,0.01287543648502668
-0.00475375,0.01651754728993762
-0.0047525,0.01651754728993762
-0.00475125,0.01651754728993762
-0.00475,0.009233325680112436
-0.00474875,0.009233325680112436
-0.0047475,0.0238017688997628
-0.00474625,0.02744387970467538
-0.004745,0.02744387970467538
-0.00474375,0.02380176889976445
-0.0047425,0.02744387970467538
-0.00474125,0.03472810131450057
-0.00474,0.03108599050958963
-0.00473875,0.03108599050958798
-0.0047375,0.02380176889976611
-0.00473625,0.02744387970467538
-0.004735,0.03837021211941482
-0.00473375,0.04201232292432575
-0.0047325,0.04201232292432575
-0.00473125,0.04201232292432575
-0.00473,0.05658076614397611
-0.00472875,0.05293865533906517
-0.0047275,0.04565443372923834
-0.00472625,0.06750709855870395
-0.004725,0.0602228769488887
-0.00472375,0.0565807661439728
-0.0047225,0.04929654453415093
-0.00472125,0.06386498775380128
-0.00472,0.07114920936362647
-0.00471875,0.07114920936362647
-0.0047175,0.08207554177835927
-0.00471625,0.08207554177836424
-0.004715,0.07843343097345
-0.00471375,0.07479132016853907
-0.0047125,0.08207554177836589
-0.00471125,0.08571765258327683
-0.00471,0.0966439849980146
-0.00470875,0.1039282066078398
-0.0047075,0.0966439849980146
-0.00470625,0.1002860958029255
-0.004705,0.1075703174127524
-0.00470375,0.1075703174127573
-0.0047025,0.1184966498274901
-0.00470125,0.111212428217665
-0.0047,0.111212428217665
-0.00469875,0.111212428217665
-0.0046975,0.1294229822422197
-0.00469625,0.1257808714373153
-0.004695,0.1294229822422263
-0.00469375,0.1330650930471405
-0.0046925,0.1439914254618783
-0.00469125,0.1439914254618783
-0.00469,0.1439914254618783
-0.00468875,0.1585598686815286
-0.0046875,0.1658440902913538
-0.00468625,0.154917757876621
-0.004685,0.1622019794864412
-0.00468375,0.176770422706085
-0.0046825,0.173128311901179
-0.00468125,0.191338865925737
-0.00468,0.1804125335110042
-0.00467875,0.191338865925742
-0.0046775,0.1876967551208294
-0.00467625,0.1949809767306545
-0.004675,0.2022651983404764
-0.00467375,0.2095494199503049
-0.0046725,0.2095494199503082
-0.00467125,0.2168336415601301
-0.00467,0.2204757523650427
-0.00466875,0.2204757523650427
-0.0046675,0.2277599739748679
-0.00466625,0.2386863063896056
-0.004665,0.2496126388043434
-0.00466375,0.2532547496092543
-0.0046625,0.253254749609256
-0.00466125,0.2641810820239938
-0.00466,0.2641810820239938
-0.00465875,0.2678231928289129
-0.0046575,0.2823916360485567
-0.00465625,0.2787495252436441
-0.004655,0.2860337468534693
-0.00465375,0.2933179684632945
-0.0046525,0.3042443008780272
-0.00465125,0.3042443008780322
-0.00465,0.3078864116829465
-0.00464875,0.3115285224878574
-0.0046475,0.3188127440976826
-0.00464625,0.3260969657075078
-0.004645,0.3370232981222456
-0.00464375,0.3333811873173346
-0.0046425,0.3406654089271581
-0.00464125,0.34794963053698
-0.00464,0.3588759629517211
-0.00463875,0.3698022953664605
-0.0046375,0.3734444061713715
-0.00463625,0.377086516976284
-0.004635,0.3734444061713715
-0.00463375,0.3916549601959344
-0.0046325,0.3989391818057563
-0.00463125,0.395297071000847
-0.00463,0.3989391818057596
-0.00462875,0.3989391818057596
-0.0046275,0.4062234034155914
-0.00462625,0.4207918466352351
-0.004625,0.4390024006597981
-0.00462375,0.4462866222696232
-0.0046225,0.4462866222696232
-0.00462125,0.4353602898548905
-0.00462,0.457212954684361
-0.00461875,0.4644971762941879
-0.0046175,0.4681392870990988
-0.00461625,0.4717813979040164
-0.004615,0.4827077303187491
-0.00461375,0.4863498411236618
-0.0046125,0.5045603951482247
-0.00461125,0.5045603951482247
-0.00461,0.5082025059531357
-0.00460875,0.5264130599777003
-0.0046075,0.519128838367885
-0.00460625,0.5409815031973506
-0.004605,0.537339392392438
-0.00460375,0.5519078356120883
-0.0046025,0.555549946417001
-0.00460125,0.5628341680268228
-0.0046,0.5628341680268262
-0.00459875,0.5664762788317371
-0.0045975,0.5810447220513891
-0.00459625,0.5846868328563067
-0.004595,0.5956131652710395
-0.00459375,0.5956131652710395
-0.0045925,0.6138237192956024
-0.00459125,0.617465830100515
-0.00459,0.617465830100515
-0.00458875,0.617465830100515
-0.0045875,0.6356763841250697
-0.00458625,0.6466027165398157
-0.004585,0.6538869381496443
-0.00458375,0.6611711597594661
-0.0045825,0.6684553813692913
-0.00458125,0.679381713784029
-0.00458,0.6939501570036793
-0.00457875,0.6830238245889466
-0.0045775,0.6903080461987668
-0.00457625,0.7085186002233331
-0.004575,0.7158028218331549
-0.00457375,0.7267291542478928
-0.0045725,0.7267291542478928
-0.00457125,0.7412975974675431
-0.00457,0.7412975974675431
-0.00456875,0.7558660406871934
-0.0045675,0.7667923731019262
-0.00456625,0.7631502622970187
-0.004565,0.7850029271264941
-0.00456375,0.7850029271264941
-0.0045625,0.7922871487363177
-0.00456125,0.7886450379314067
-0.00456,0.7959292595412319
-0.00455875,0.8068555919559647
-0.0045575,0.8177819243707074
-0.00455625,0.835992478395262
-0.004555,0.8359924783952704
-0.00455375,0.839634589200188
-0.0045525,0.8505609216149208
-0.00455125,0.8614872540296585
-0.00455,0.8724135864443963
-0.00454875,0.8724135864443963
-0.0045475,0.8833399188591291
-0.00454625,0.8942662512738718
-0.004545,0.8979083620787828
-0.00454375,0.9088346944935222
-0.0045425,0.905192583688613
-0.00454125,0.9124768052984348
-0.00454,0.9234031377131726
-0.00453875,0.9452558025426481
-0.0045375,0.9452558025426481
-0.00453625,0.9598242457622919
-0.004535,0.9561821349573859
-0.00453375,0.9634663565672177
-0.0045325,0.9780347997868615
-0.00453125,0.9853190213966883
-0.00453,0.9889611322015992
-0.00452875,1.010813797031075
-0.0045275,1.014455907835987
-0.00452625,1.021740129445813
-0.004525,1.021740129445813
-0.00452375,1.029024351055638
-0.0045225,1.043592794275288
-0.00452125,1.043592794275288
-0.00452,1.050877015885113
-0.00451875,1.050877015885113
-0.0045175,1.069087569909676
-0.00451625,1.072729680714587
-0.004515,1.076371791519501
-0.00451375,1.094582345544056
-0.0045125,1.105508677958802
-0.00451125,1.094582345544078
-0.00451,1.123719231983365
-0.00450875,1.127361342788278
-0.0045075,1.134645564398103
-0.00450625,1.138287675203015
-0.004505,1.141929786007926
-0.00450375,1.152856118422666
-0.0045025,1.16742456164231
-0.00450125,1.171066672447229
-0.0045,1.181993004861966
-0.00449875,1.181993004861966
-0.0044975,1.189277226471792
-0.00449625,1.203845669691442
-0.004495,1.21477200210618
-0.00449375,1.222056223716002
-0.0044925,1.232982556130743
-0.00449125,1.232982556130746
-0.00449,1.240266777740568
-0.00448875,1.247550999350398
-0.0044875,1.258477331765131
-0.00448625,1.269403664179869
-0.004485,1.269403664179869
-0.00448375,1.283972107399519
-0.0044825,1.283972107399519
-0.00448125,1.298540550619169
-0.00448,1.305824772228996
-0.00447875,1.309466883033907
-0.0044775,1.313108993838828
-0.00447625,1.331319547863383
-0.004475,1.334961658668295
-0.00447375,1.342245880278117
-0.0044725,1.353172212692858
-0.00447125,1.353172212692858
-0.00447,1.360456434302683
-0.00446875,1.364098545107601
-0.0044675,1.375024877522334
-0.00446625,1.389593320741984
-0.004465,1.396877542351809
-0.00446375,1.393235431546897
-0.0044625,1.40780387476654
-0.00446125,1.396877542351809
-0.00446,1.418730207181275
-0.00445875,1.436940761205848
-0.0044575,1.436940761205846
-0.00445625,1.433298650400935
-0.004455,1.451509204425498
-0.00445375,1.458793426035323
-0.0044525,1.455151315230411
-0.00445125,1.466077647645144
-0.00445,1.469719758450061
-0.00444875,1.487930312474627
-0.0044475,1.495214534084449
-0.00444625,1.502498755694273
-0.004445,1.498856644889362
-0.00444375,1.506140866499187
-0.0044425,1.513425088109012
-0.00444125,1.52435142052375
-0.00444,1.527993531328661
-0.00443875,1.5389198637434
-0.0044375,1.542561974548316
-0.00443625,1.549846196158138
-0.004435,1.557130417767963
-0.00443375,1.557130417767963
-0.0044325,1.564414639377788
-0.00443125,1.582625193402343
-0.00443,1.578983082597439
-0.00442875,1.593551525817082
-0.0044275,1.593551525817089
-0.00442625,1.597193636622003
-0.004425,1.600835747426914
-0.00442375,1.619046301451477
-0.0044225,1.615404190646565
-0.00442125,1.626330523061303
-0.00442,1.629972633866213
-0.00441875,1.633614744671128
-0.0044175,1.644541077085861
-0.00441625,1.651825298695691
-0.004415,1.662751631110428
-0.00441375,1.662751631110428
-0.0044125,1.677320074330079
-0.00441125,1.677320074330079
-0.00441,1.677320074330079
-0.00440875,1.68096218513499
-0.0044075,1.695530628354642
-0.00440625,1.695530628354647
-0.004405,1.706456960769379
-0.00440375,1.710099071574299
-0.0044025,1.724667514793942
-0.00440125,1.72102540398903
-0.0044,1.728309625598855
-0.00439875,1.742878068818505
-0.0043975,1.742878068818505
-0.00439625,1.746520179623418
-0.004395,1.753804401233243
-0.00439375,1.753804401233243
-0.0043925,1.75380440123325
-0.00439125,1.768372844452893
-0.00439,1.779299176867631
-0.00438875,1.782941287672542
-0.0043875,1.779299176867631
-0.00438625,1.790225509282364
-0.004385,1.786583398477456
-0.00438375,1.793867620087285
-0.0043825,1.801151841697107
-0.00438125,1.801151841697107
-0.00438,1.804793952502019
-0.00437875,1.81936239572167
-0.0043775,1.815720284916759
-0.00437625,1.81936239572167
-0.004375,1.823004506526581
-0.00437375,1.826646617331495
-0.0043725,1.841215060551144
-0.00437125,1.837572949746233
-0.00437,1.844857171356058
-0.00436875,1.852141392965883
-0.0043675,1.84849928216097
-0.00436625,1.852141392965881
-0.004365,1.84849928216097
-0.00436375,1.866709836185533
-0.0043625,1.866709836185533
-0.00436125,1.87763616860027
-0.00436,1.873994057795359
-0.00435875,1.888562501015009
-0.0043575,1.884920390210096
-0.00435625,1.884920390210096
-0.004355,1.895846722624829
-0.00435375,1.892204611819922
-0.0043525,1.90677305503957
-0.00435125,1.903130944234659
-0.00435,1.914057276649396
-0.00434875,1.910415165844485
-0.0043475,1.91769938745431
-0.00434625,1.91769938745431
-0.004345,1.921341498259222
-0.00434375,1.917699387454311
-0.0043425,1.921341498259222
-0.00434125,1.93226783067396
-0.00434,1.93226783067396
-0.00433875,1.943194163088698
-0.0043375,1.935909941478873
-0.00433625,1.935909941478873
-0.004335,1.946836273893606
-0.00433375,1.935909941478873
-0.0043325,1.950478384698516
-0.00433125,1.954120495503436
-0.00433,1.961404717113259
-0.00432875,1.957762606308348
-0.0043275,1.961404717113261
-0.00432625,1.965046827918173
-0.004325,1.957762606308348
-0.00432375,1.968688938723081
-0.0043225,1.972331049527999
-0.00432125,1.972331049527997
-0.00432,1.968688938723086
-0.00431875,1.979615271137824
-0.0043175,1.979615271137824
-0.00431625,1.983257381942736
-0.004315,1.975973160332911
-0.00431375,1.983257381942736
-0.0043125,1.979615271137825
-0.00431125,1.997825825162387
